{
    "org.apache.cordova.device": {
        "source": {
            "type": "registry",
            "id": "org.apache.cordova.device"
        }
    },
    "org.apache.cordova.network-information": {
        "source": {
            "type": "registry",
            "id": "org.apache.cordova.network-information"
        }
    },
    "org.apache.cordova.camera": {
        "source": {
            "type": "registry",
            "id": "org.apache.cordova.camera"
        }
    },
    "org.apache.cordova.media-capture": {
        "source": {
            "type": "registry",
            "id": "org.apache.cordova.media-capture"
        }
    },
    "org.apache.cordova.file": {
        "source": {
            "type": "registry",
            "id": "org.apache.cordova.file"
        }
    },
    "org.apache.cordova.media": {
        "source": {
            "type": "registry",
            "id": "org.apache.cordova.media"
        }
    },
    "org.apache.cordova.contacts": {
        "source": {
            "type": "registry",
            "id": "org.apache.cordova.contacts"
        }
    }
}